{
  "totalCount": 1066,
  "start": 0,
  "rows": 50,
  "result": [
    {
      "id": 778,
      "title": "AVENIDA SAN GREGORIO SAN GREGORIO, s/n",
      "tipo": "Abierto",
      "plazas": 14,
      "anclajes": 7,
      "lastUpdated": "2018-04-10T00:00:00Z",
      "geometry": {
        "type": "Point",
        "coordinates": [
          -0.8609979205869059,
          41.69288756376885
        ]
      },
      "icon": "//www.zaragoza.es/contenidos/iconos/aparcabici.png"
    },
    {
      "id": 779,
      "title": "PASEO ANTONIO NEGRE GARCIA SAN JUAN DE MOZARRIFAR, 35",
      "tipo": "Cerrado",
      "plazas": 8,
      "anclajes": 7,
      "lastUpdated": "2018-04-10T00:00:00Z",
      "geometry": {
        "type": "Point",
        "coordinates": [
          -0.8435775784895484,
          41.71912789615381
        ]
      },
      "icon": "//www.zaragoza.es/contenidos/iconos/aparcabici_recinto.png"
    },
    {
      "id": 780,
      "title": "CALLE BRUNO SOLANO, s/n",
      "tipo": "Abierto",
      "plazas": 20,
      "anclajes": 10,
      "lastUpdated": "2018-04-10T00:00:00Z",
      "geometry": {
        "type": "Point",
        "coordinates": [
          -0.8937178724164481,
          41.6385669076129
        ]
      },
      "icon": "//www.zaragoza.es/contenidos/iconos/aparcabici.png"
    },
    {
      "id": 781,
      "title": "PLAZA EMPERADOR CARLOS, s/n",
      "tipo": "Abierto",
      "plazas": 6,
      "anclajes": 6,
      "lastUpdated": "2018-04-10T00:00:00Z",
      "geometry": {
        "type": "Point",
        "coordinates": [
          -0.8987880449573169,
          41.63782417605534
        ]
      },
      "icon": "//www.zaragoza.es/contenidos/iconos/aparcabici.png"
    },
    {
      "id": 782,
      "title": "PLAZA EMPERADOR CARLOS, s/n",
      "tipo": "Abierto",
      "plazas": 10,
      "anclajes": 5,
      "lastUpdated": "2018-04-10T00:00:00Z",
      "geometry": {
        "type": "Point",
        "coordinates": [
          -0.8993910301548612,
          41.63806280235327
        ]
      },
      "icon": "//www.zaragoza.es/contenidos/iconos/aparcabici.png"
    },
    {
      "id": 783,
      "title": "PARQUE ARBOLEDA MACANAZ, s/n",
      "tipo": "Abierto",
      "plazas": 6,
      "anclajes": 6,
      "lastUpdated": "2018-04-10T00:00:00Z",
      "geometry": {
        "type": "Point",
        "coordinates": [
          -0.8791662514117328,
          41.659143885746886
        ]
      },
      "icon": "//www.zaragoza.es/contenidos/iconos/aparcabici.png"
    },
    {
      "id": 784,
      "title": "CALLE MARIA ZAMBRANO, 4",
      "tipo": "Abierto",
      "plazas": 8,
      "anclajes": 4,
      "lastUpdated": "2018-04-10T00:00:00Z",
      "geometry": {
        "type": "Point",
        "coordinates": [
          -0.8839349225510407,
          41.66444633205226
        ]
      },
      "icon": "//www.zaragoza.es/contenidos/iconos/aparcabici.png"
    },
    {
      "id": 785,
      "title": "CALLE LUDWIG VAN BEETHOVEN, 42",
      "tipo": "Abierto",
      "plazas": 16,
      "anclajes": 8,
      "lastUpdated": "2018-04-10T00:00:00Z",
      "geometry": {
        "type": "Point",
        "coordinates": [
          -0.9455891236346192,
          41.63586777586057
        ]
      },
      "icon": "//www.zaragoza.es/contenidos/iconos/aparcabici.png"
    },
    {
      "id": 786,
      "title": "CALLE JOHAN SEBASTIAN BACH, s/n",
      "tipo": "Abierto",
      "plazas": 10,
      "anclajes": 5,
      "lastUpdated": "2018-04-10T00:00:00Z",
      "geometry": {
        "type": "Point",
        "coordinates": [
          -0.9484276051473779,
          41.63943826841373
        ]
      },
      "icon": "//www.zaragoza.es/contenidos/iconos/aparcabici.png"
    },
    {
      "id": 787,
      "title": "PLAZA LA INMACULADA, s/n",
      "tipo": "Abierto",
      "plazas": 8,
      "anclajes": 7,
      "lastUpdated": "2018-04-10T00:00:00Z",
      "geometry": {
        "type": "Point",
        "coordinates": [
          -0.9306310971238023,
          41.63950552127618
        ]
      },
      "icon": "//www.zaragoza.es/contenidos/iconos/aparcabici.png"
    },
    {
      "id": 788,
      "title": "CALLE M. N. SRA. DE LOS ANGELES, s/n",
      "tipo": "Cerrado",
      "plazas": 7,
      "anclajes": 7,
      "lastUpdated": "2018-04-10T00:00:00Z",
      "geometry": {
        "type": "Point",
        "coordinates": [
          -0.9213085778810882,
          41.64252581605132
        ]
      },
      "icon": "//www.zaragoza.es/contenidos/iconos/aparcabici_recinto.png"
    },
    {
      "id": 789,
      "title": "CALLE JARQUE DE MONCAYO, 23",
      "tipo": "Abierto",
      "plazas": 8,
      "anclajes": 7,
      "lastUpdated": "2018-04-10T00:00:00Z",
      "geometry": {
        "type": "Point",
        "coordinates": [
          -0.9223102037854118,
          41.64259996259573
        ]
      },
      "icon": "//www.zaragoza.es/contenidos/iconos/aparcabici.png"
    },
    {
      "id": 790,
      "title": "CALLE JARQUE DE MONCAYO, 10",
      "tipo": "Cerrado",
      "plazas": 47,
      "anclajes": 47,
      "lastUpdated": "2018-04-10T00:00:00Z",
      "geometry": {
        "type": "Point",
        "coordinates": [
          -0.9229873984446477,
          41.64456076849567
        ]
      },
      "icon": "//www.zaragoza.es/contenidos/iconos/aparcabici_recinto.png"
    },
    {
      "id": 791,
      "title": "CALLE JARQUE DE MONCAYO, 17",
      "tipo": "Cerrado",
      "plazas": 8,
      "anclajes": 8,
      "lastUpdated": "2018-04-10T00:00:00Z",
      "geometry": {
        "type": "Point",
        "coordinates": [
          -0.9226599740738051,
          41.64492267134371
        ]
      },
      "icon": "//www.zaragoza.es/contenidos/iconos/aparcabici_recinto.png"
    },
    {
      "id": 792,
      "title": "CALLE JARQUE DE MONCAYO, 17",
      "tipo": "Cerrado",
      "plazas": 7,
      "anclajes": 6,
      "lastUpdated": "2018-04-10T00:00:00Z",
      "geometry": {
        "type": "Point",
        "coordinates": [
          -0.9219419886798471,
          41.64471207860418
        ]
      },
      "icon": "//www.zaragoza.es/contenidos/iconos/aparcabici_recinto.png"
    },
    {
      "id": 793,
      "title": "CALLE JARQUE DE MONCAYO, 17",
      "tipo": "Cerrado",
      "plazas": 6,
      "anclajes": 6,
      "lastUpdated": "2018-04-10T00:00:00Z",
      "geometry": {
        "type": "Point",
        "coordinates": [
          -0.92231846657454,
          41.6446245926094
        ]
      },
      "icon": "//www.zaragoza.es/contenidos/iconos/aparcabici_recinto.png"
    },
    {
      "id": 794,
      "title": "PASEO DE CALANDA, 1",
      "tipo": "Abierto",
      "plazas": 22,
      "anclajes": 11,
      "lastUpdated": "2018-04-10T00:00:00Z",
      "geometry": {
        "type": "Point",
        "coordinates": [
          -0.904371411118656,
          41.65475688983963
        ]
      },
      "icon": "//www.zaragoza.es/contenidos/iconos/aparcabici.png"
    },
    {
      "id": 795,
      "title": "PASEO DE CALANDA, 7",
      "tipo": "Abierto",
      "plazas": 12,
      "anclajes": 6,
      "lastUpdated": "2018-04-10T00:00:00Z",
      "geometry": {
        "type": "Point",
        "coordinates": [
          -0.9043508540706424,
          41.65416532998327
        ]
      },
      "icon": "//www.zaragoza.es/contenidos/iconos/aparcabici.png"
    },
    {
      "id": 796,
      "title": "PASEO DE CALANDA, 16",
      "tipo": "Abierto",
      "plazas": 10,
      "anclajes": 5,
      "lastUpdated": "2018-04-10T00:00:00Z",
      "geometry": {
        "type": "Point",
        "coordinates": [
          -0.9046154827138149,
          41.65362265622291
        ]
      },
      "icon": "//www.zaragoza.es/contenidos/iconos/aparcabici.png"
    },
    {
      "id": 797,
      "title": "PASEO DE CALANDA, 69",
      "tipo": "Abierto",
      "plazas": 12,
      "anclajes": 6,
      "lastUpdated": "2018-04-10T00:00:00Z",
      "geometry": {
        "type": "Point",
        "coordinates": [
          -0.9020876635182938,
          41.6486294224405
        ]
      },
      "icon": "//www.zaragoza.es/contenidos/iconos/aparcabici.png"
    },
    {
      "id": 798,
      "title": "CALLE DOMINGO RAM, 49",
      "tipo": "Abierto",
      "plazas": 6,
      "anclajes": 6,
      "lastUpdated": "2018-04-10T00:00:00Z",
      "geometry": {
        "type": "Point",
        "coordinates": [
          -0.9056126687114028,
          41.64821219680941
        ]
      },
      "icon": "//www.zaragoza.es/contenidos/iconos/aparcabici.png"
    },
    {
      "id": 799,
      "title": "CALLE FUENTERRABIA, 1",
      "tipo": "Abierto",
      "plazas": 10,
      "anclajes": 5,
      "lastUpdated": "2018-04-10T00:00:00Z",
      "geometry": {
        "type": "Point",
        "coordinates": [
          -0.8971548453098162,
          41.655013759506765
        ]
      },
      "icon": "//www.zaragoza.es/contenidos/iconos/aparcabici.png"
    },
    {
      "id": 800,
      "title": "AVENIDA SAN JUAN BOSCO, 15",
      "tipo": "Abierto",
      "plazas": 12,
      "anclajes": 12,
      "lastUpdated": "2018-04-10T00:00:00Z",
      "geometry": {
        "type": "Point",
        "coordinates": [
          -0.9040307683341532,
          41.64275575583699
        ]
      },
      "icon": "//www.zaragoza.es/contenidos/iconos/aparcabici.png"
    },
    {
      "id": 801,
      "title": "CALLE A. ATIENZA COBOS, s/n",
      "tipo": "Abierto",
      "plazas": 10,
      "anclajes": 5,
      "lastUpdated": "2018-04-10T00:00:00Z",
      "geometry": {
        "type": "Point",
        "coordinates": [
          -0.9168548054330372,
          41.64952259185301
        ]
      },
      "icon": "//www.zaragoza.es/contenidos/iconos/aparcabici.png"
    },
    {
      "id": 802,
      "title": "CALLE MOSEN ANDRES VICENTE, F38",
      "tipo": "Abierto",
      "plazas": 10,
      "anclajes": 5,
      "lastUpdated": "2018-04-10T00:00:00Z",
      "geometry": {
        "type": "Point",
        "coordinates": [
          -0.913318036056107,
          41.647787045691416
        ]
      },
      "icon": "//www.zaragoza.es/contenidos/iconos/aparcabici.png"
    },
    {
      "id": 803,
      "title": "AVENIDA CASABLANCA, sn",
      "tipo": "Abierto",
      "plazas": 9,
      "anclajes": 9,
      "lastUpdated": "2018-04-10T00:00:00Z",
      "geometry": {
        "type": "Point",
        "coordinates": [
          -0.9362163537953005,
          41.62131845894883
        ]
      },
      "icon": "//www.zaragoza.es/contenidos/iconos/aparcabici.png"
    },
    {
      "id": 804,
      "title": "AVENIDA CASABLANCA, sn",
      "tipo": "Abierto",
      "plazas": 9,
      "anclajes": 9,
      "lastUpdated": "2018-04-10T00:00:00Z",
      "geometry": {
        "type": "Point",
        "coordinates": [
          -0.9364778562641003,
          41.62154165635031
        ]
      },
      "icon": "//www.zaragoza.es/contenidos/iconos/aparcabici.png"
    },
    {
      "id": 805,
      "title": "AVENIDA CASABLANCA, sn",
      "tipo": "Abierto",
      "plazas": 9,
      "anclajes": 9,
      "lastUpdated": "2018-04-10T00:00:00Z",
      "geometry": {
        "type": "Point",
        "coordinates": [
          -0.9366492071964477,
          41.621535728391876
        ]
      },
      "icon": "//www.zaragoza.es/contenidos/iconos/aparcabici.png"
    },
    {
      "id": 806,
      "title": "AVENIDA CASABLANCA, sn",
      "tipo": "Abierto",
      "plazas": 9,
      "anclajes": 9,
      "lastUpdated": "2018-04-10T00:00:00Z",
      "geometry": {
        "type": "Point",
        "coordinates": [
          -0.9365762432783092,
          41.62165942826753
        ]
      },
      "icon": "//www.zaragoza.es/contenidos/iconos/aparcabici.png"
    },
    {
      "id": 807,
      "title": "AVENIDA CASABLANCA, sn",
      "tipo": "Abierto",
      "plazas": 9,
      "anclajes": 9,
      "lastUpdated": "2018-04-10T00:00:00Z",
      "geometry": {
        "type": "Point",
        "coordinates": [
          -0.9367055221187821,
          41.62160654079231
        ]
      },
      "icon": "//www.zaragoza.es/contenidos/iconos/aparcabici.png"
    },
    {
      "id": 808,
      "title": "PASEO DE CUELLAR, 45",
      "tipo": "Abierto",
      "plazas": 10,
      "anclajes": 5,
      "lastUpdated": "2018-04-10T00:00:00Z",
      "geometry": {
        "type": "Point",
        "coordinates": [
          -0.8844936996052993,
          41.63613283869447
        ]
      },
      "icon": "//www.zaragoza.es/contenidos/iconos/aparcabici.png"
    },
    {
      "id": 809,
      "title": "AVENIDA CASABLANCA, sn",
      "tipo": "Abierto",
      "plazas": 9,
      "anclajes": 9,
      "lastUpdated": "2018-04-10T00:00:00Z",
      "geometry": {
        "type": "Point",
        "coordinates": [
          -0.9367333582926202,
          41.621674589911756
        ]
      },
      "icon": "//www.zaragoza.es/contenidos/iconos/aparcabici.png"
    },
    {
      "id": 810,
      "title": "CALLE GERTRUDIS GOMEZ DE AVELLANEDA, 22",
      "tipo": "Abierto",
      "plazas": 10,
      "anclajes": 5,
      "lastUpdated": "2018-04-10T00:00:00Z",
      "geometry": {
        "type": "Point",
        "coordinates": [
          -0.8868196250472917,
          41.66644836544268
        ]
      },
      "icon": "//www.zaragoza.es/contenidos/iconos/aparcabici.png"
    },
    {
      "id": 811,
      "title": "AVENIDA JOSE ATARES, s/n",
      "tipo": "Abierto",
      "plazas": 4,
      "anclajes": 4,
      "lastUpdated": "2018-04-10T00:00:00Z",
      "geometry": {
        "type": "Point",
        "coordinates": [
          -0.8898360227976694,
          41.66276166502851
        ]
      },
      "icon": "//www.zaragoza.es/contenidos/iconos/aparcabici.png"
    },
    {
      "id": 812,
      "title": "AVENIDA MADRID, s/n",
      "tipo": "Cerrado",
      "plazas": 10,
      "anclajes": 10,
      "lastUpdated": "2018-04-10T00:00:00Z",
      "geometry": {
        "type": "Point",
        "coordinates": [
          -0.8970839078734065,
          41.65606018216158
        ]
      },
      "icon": "//www.zaragoza.es/contenidos/iconos/aparcabici_recinto.png"
    },
    {
      "id": 813,
      "title": "CALLE CUARTE, 74",
      "tipo": "Abierto",
      "plazas": 10,
      "anclajes": 5,
      "lastUpdated": "2018-04-10T00:00:00Z",
      "geometry": {
        "type": "Point",
        "coordinates": [
          -0.8905134131594712,
          41.6298389787206
        ]
      },
      "icon": "//www.zaragoza.es/contenidos/iconos/aparcabici.png"
    },
    {
      "id": 814,
      "title": "CALLE CUARTA AVENIDA, 13",
      "tipo": "Cerrado",
      "plazas": 16,
      "anclajes": 8,
      "lastUpdated": "2018-04-10T00:00:00Z",
      "geometry": {
        "type": "Point",
        "coordinates": [
          -0.8791549204737016,
          41.62490333260491
        ]
      },
      "icon": "//www.zaragoza.es/contenidos/iconos/aparcabici_recinto.png"
    },
    {
      "id": 815,
      "title": "CALLE OVIEDO, 86",
      "tipo": "Cerrado",
      "plazas": 8,
      "anclajes": 4,
      "lastUpdated": "2018-04-10T00:00:00Z",
      "geometry": {
        "type": "Point",
        "coordinates": [
          -0.8775022576127531,
          41.62544516039581
        ]
      },
      "icon": "//www.zaragoza.es/contenidos/iconos/aparcabici_recinto.png"
    },
    {
      "id": 816,
      "title": "PASEO DE CUELLAR, 23-27",
      "tipo": "Abierto",
      "plazas": 12,
      "anclajes": 6,
      "lastUpdated": "2018-04-10T00:00:00Z",
      "geometry": {
        "type": "Point",
        "coordinates": [
          -0.884294499334701,
          41.63809582344915
        ]
      },
      "icon": "//www.zaragoza.es/contenidos/iconos/aparcabici.png"
    },
    {
      "id": 817,
      "title": "CALLE ANTONIO VIVALDI, s/n",
      "tipo": "Abierto",
      "plazas": 20,
      "anclajes": 10,
      "lastUpdated": "2018-04-10T00:00:00Z",
      "geometry": {
        "type": "Point",
        "coordinates": [
          -0.9471054603434039,
          41.635341440582685
        ]
      },
      "icon": "//www.zaragoza.es/contenidos/iconos/aparcabici.png"
    },
    {
      "id": 818,
      "title": "CALLE JOHAN SEBASTIAN BACH, s/n",
      "tipo": "Abierto",
      "plazas": 20,
      "anclajes": 10,
      "lastUpdated": "2018-04-10T00:00:00Z",
      "geometry": {
        "type": "Point",
        "coordinates": [
          -0.9459953442745649,
          41.63512506860776
        ]
      },
      "icon": "//www.zaragoza.es/contenidos/iconos/aparcabici.png"
    },
    {
      "id": 819,
      "title": "AVENIDA LOGROÑO CASETAS, 10",
      "tipo": "Abierto",
      "plazas": 20,
      "anclajes": 10,
      "lastUpdated": "2018-04-10T00:00:00Z",
      "geometry": {
        "type": "Point",
        "coordinates": [
          -1.0261307189588893,
          41.71788072997974
        ]
      },
      "icon": "//www.zaragoza.es/contenidos/iconos/aparcabici.png"
    },
    {
      "id": 820,
      "title": "CALLE TOMAS ZUMALACARREGUI, 19",
      "tipo": "Abierto",
      "plazas": 10,
      "anclajes": 5,
      "lastUpdated": "2018-04-10T00:00:00Z",
      "geometry": {
        "type": "Point",
        "coordinates": [
          -0.8883472471187898,
          41.643496584506714
        ]
      },
      "icon": "//www.zaragoza.es/contenidos/iconos/aparcabici.png"
    },
    {
      "id": 821,
      "title": "CALLE EDUARDO SALVADOR HERNAZ, s/n",
      "tipo": "Abierto",
      "plazas": 10,
      "anclajes": 5,
      "lastUpdated": "2018-04-10T00:00:00Z",
      "geometry": {
        "type": "Point",
        "coordinates": [
          -0.8781799726121848,
          41.63969431984703
        ]
      },
      "icon": "//www.zaragoza.es/contenidos/iconos/aparcabici.png"
    },
    {
      "id": 822,
      "title": "PARQUE MIRAFLORES, 1",
      "tipo": "Abierto",
      "plazas": 10,
      "anclajes": 51,
      "lastUpdated": "2018-04-10T00:00:00Z",
      "geometry": {
        "type": "Point",
        "coordinates": [
          -0.8781227990641048,
          41.64171350467612
        ]
      },
      "icon": "//www.zaragoza.es/contenidos/iconos/aparcabici.png"
    },
    {
      "id": 823,
      "title": "PARQUE MIRAFLORES, 1",
      "tipo": "Cerrado",
      "plazas": 6,
      "anclajes": 3,
      "lastUpdated": "2018-04-10T00:00:00Z",
      "geometry": {
        "type": "Point",
        "coordinates": [
          -0.8771284208010633,
          41.64230162067284
        ]
      },
      "icon": "//www.zaragoza.es/contenidos/iconos/aparcabici_recinto.png"
    },
    {
      "id": 824,
      "title": "CALLE PINTOR MARIN BAGUES, 2",
      "tipo": "Abierto",
      "plazas": 10,
      "anclajes": 5,
      "lastUpdated": "2018-04-10T00:00:00Z",
      "geometry": {
        "type": "Point",
        "coordinates": [
          -0.8802228604905648,
          41.63335348375393
        ]
      },
      "icon": "//www.zaragoza.es/contenidos/iconos/aparcabici.png"
    },
    {
      "id": 825,
      "title": "CALLE LUIS ROYO VILLANOVA, s/n",
      "tipo": "Abierto",
      "plazas": 8,
      "anclajes": 4,
      "lastUpdated": "2018-04-10T00:00:00Z",
      "geometry": {
        "type": "Point",
        "coordinates": [
          -0.8804138418563581,
          41.6342876488463
        ]
      },
      "icon": "//www.zaragoza.es/contenidos/iconos/aparcabici.png"
    },
    {
      "id": 826,
      "title": "CALLE ZARAGOZA LA VIEJA, 64-70",
      "tipo": "Abierto",
      "plazas": 8,
      "anclajes": 4,
      "lastUpdated": "2018-04-10T00:00:00Z",
      "geometry": {
        "type": "Point",
        "coordinates": [
          -0.8769353144258689,
          41.63201806077499
        ]
      },
      "icon": "//www.zaragoza.es/contenidos/iconos/aparcabici.png"
    },
    {
      "id": 827,
      "title": "CALLE ZARAGOZA LA VIEJA, 44-52",
      "tipo": "Abierto",
      "plazas": 8,
      "anclajes": 4,
      "lastUpdated": "2018-04-10T00:00:00Z",
      "geometry": {
        "type": "Point",
        "coordinates": [
          -0.8762193978745287,
          41.63270345482104
        ]
      },
      "icon": "//www.zaragoza.es/contenidos/iconos/aparcabici.png"
    }
  ]
}